Usage: telnet [-4] [-6] [-8] [-E] [-K] [-L] [-X atype] [-a] [-d] [-e char]
	[-l user] [-n tracefile] [ -b addr ] [-r] 
	[-z ssl] [-z secure] [-z debug] [-z verify=int]
	[-z cacert=file] [-z cert=file] [-z key=file]
	[host-name [port]]
