tmux & screen cheat-sheet

screen and tmux

A comparison of the features (or more-so just a table of notes for accessing
some of those features) for GNU screen and BSD-licensed tmux.

┌─────────────────────────────────────────────────────────────────────────────┐
│The formatting here is simple enough to understand (I would hope). ^ means   │
│ctrl+, so ^x is ctrl+x. M- means meta (generally left-alt or escape)+, so M-x│
│is left-alt+x                                                                │
│                                                                             │
│It should be noted that this is no where near a full feature-set of either   │
│group. This - being a cheat-sheet - is just to point out the most very basic │
│features to get you on the road.                                             │
│                                                                             │
│Trust the developers and manpage writers more than me. This document is      │
│originally from 2009 when tmux was still new - since then both of these      │
│programs have had many updates and features added (not all of which have been│
│dutifully noted here).                                                       │
├─────────────────────────────────────────────┬───────────────────┬───────────┤
│Action                                       │tmux               │screen     │
├─────────────────────────────────────────────┼───────────────────┼───────────┤
│                                             │tmux OR            │           │
│start a new session                          │tmux new OR        │screen     │
│                                             │tmux new-session   │           │
├─────────────────────────────────────────────┼───────────────────┼───────────┤
│re-attach a detached session                 │tmux attach OR     │screen-r   │
│                                             │tmux attach-session│           │
├─────────────────────────────────────────────┼───────────────────┼───────────┤
│re-attach an attached session (detaching it  │tmux attach -d OR  │           │
│from elsewhere)                              │tmux attach-session│screen -dr │
│                                             │-d                 │           │
├─────────────────────────────────────────────┼───────────────────┼───────────┤
│re-attach an attached session (keeping it    │tmux attach OR     │screen -x  │
│attached elsewhere)                          │tmux attach-session│           │
├─────────────────────────────────────────────┼───────────────────┼───────────┤
│detach from currently attached session       │^b d OR            │^a ^d OR   │
│                                             │^b :detach         │^a :detach │
├─────────────────────────────────────────────┼───────────────────┼───────────┤
│                                             │^b , <newname> OR  │^a A       │
│rename-window to newname                     │^b :rename-window  │<newname>  │
│                                             │<newn>             │           │
├─────────────────────────────────────────────┼───────────────────┼───────────┤
│list windows                                 │^b w               │^a w       │
├─────────────────────────────────────────────┼───────────────────┼───────────┤
│list windows in chooseable menu              │                   │^a "       │
├─────────────────────────────────────────────┼───────────────────┼───────────┤
│go to window #                               │^b #               │^a #       │
├─────────────────────────────────────────────┼───────────────────┼───────────┤
│go to last-active window                     │^b l               │^a ^a      │
├─────────────────────────────────────────────┼───────────────────┼───────────┤
│go to next window                            │^b n               │^a n       │
├─────────────────────────────────────────────┼───────────────────┼───────────┤
│go to previous window                        │^b p               │^a p       │
├─────────────────────────────────────────────┼───────────────────┼───────────┤
│see keybindings                              │^b ?               │^a ?       │
├─────────────────────────────────────────────┼───────────────────┼───────────┤
│                                             │^b s OR            │           │
│list sessions                                │tmux ls OR         │screen -ls │
│                                             │tmux list-sessions │           │
├─────────────────────────────────────────────┼───────────────────┼───────────┤
│toggle visual bell                           │                   │^a ^g      │
├─────────────────────────────────────────────┼───────────────────┼───────────┤
│create another window                        │^b c               │^a c       │
├─────────────────────────────────────────────┼───────────────────┼───────────┤
│exit current shell/window                    │^d                 │^d         │
├─────────────────────────────────────────────┼───────────────────┼───────────┤
│split window/pane horizontally               │^b "               │^a S       │
├─────────────────────────────────────────────┼───────────────────┼───────────┤
│split window/pane vertically                 │^b %               │^a |       │
├─────────────────────────────────────────────┼───────────────────┼───────────┤
│switch to other pane                         │^b o               │^a <tab>   │
├─────────────────────────────────────────────┼───────────────────┼───────────┤
│kill the current pane                        │^b x OR (logout/^D)│           │
├─────────────────────────────────────────────┼───────────────────┼───────────┤
│collapse the current pane/split (but leave   │                   │^a X       │
│processes running)                           │                   │           │
├─────────────────────────────────────────────┼───────────────────┼───────────┤
│cycle location of panes                      │^b ^o              │           │
├─────────────────────────────────────────────┼───────────────────┼───────────┤
│swap current pane with previous              │^b {               │           │
├─────────────────────────────────────────────┼───────────────────┼───────────┤
│swap current pane with next                  │^b }               │           │
├─────────────────────────────────────────────┼───────────────────┼───────────┤
│show time                                    │^b t               │           │
├─────────────────────────────────────────────┼───────────────────┼───────────┤
│show numeric values of panes                 │^b q               │           │
├─────────────────────────────────────────────┼───────────────────┼───────────┤
│toggle zoom-state of current pane (maximize/ │^b z               │           │
│return current pane)                         │                   │           │
├─────────────────────────────────────────────┼───────────────────┼───────────┤
│break the current pane out of its window (to │^b !               │           │
│form new window)                             │                   │           │
├─────────────────────────────────────────────┼───────────────────┼───────────┤
│re-arrange current panels within same window │^b [space]         │           │
│(different layouts)                          │                   │           │
├─────────────────────────────────────────────┼───────────────────┼───────────┤
│Kill the current window (and all panes       │^b killw           │           │
│within)                                      │[target-window]    │           │
└─────────────────────────────────────────────┴───────────────────┴───────────┘
Last Modified: 2017/01/11
URL: http://maleah.dayid.org/comp/tm.html
Valid HTML 4.01 Transitional Written in the vi editor
