Usage of pulsemixer:
  -h, --help            show this help message and exit
  -v, --version         print version
  -l, --list            list everything
  --list-sources        list sources
  --list-sinks          list sinks
  --id ID               specify ID. If no ID specified - default sink is used
  --set-volume n        set volume for ID
  --set-volume-all n:n  set volume for ID (for every channel)
  --change-volume +-n   change volume for ID
  --get-mute            get mute for ID
  --toggle-mute         toggle mute for ID
  --get-volume          get volume for ID
  --mute                mute ID
  --unmute              unmute ID
  --server              choose the server to connect to
  --color n             0 no color, 1 color currently selected, 2 full-color (default)
  --no-mouse            disable mouse support
